{
	"meta": {
		"version": "3.2.1",
		"report_json_url": "https://raw.githubusercontent.com/eosc-synergy/LandSlideHySEA.assess.sqaaas/main/.report/assessment_output.json"
	},
	"repository": [
		{
			"url": "https://github.com/edanya-uma/LandSlideHySEA",
			"name": "edanya-uma/LandSlideHySEA",
			"tag": "main",
			"commit_id": "ee4baafb19315d3ebda05f0736b51164e3c3691d",
			"is_main_repo": true,
			"avatar_url": "https://avatars.githubusercontent.com/u/43543554?v=4",
			"description": null,
			"languages": null,
			"topics": null,
			"stargazers_count": null,
			"watchers_count": null,
			"contributors_count": null,
			"forks_count": null,
			"badge_status": "no_badge"
		}
	],
	"report": {
		"QC.Acc": {
			"valid": true,
			"subcriteria": {
				"QC.Acc01": {
					"description": "Is the source code managed with a Version Control System?",
					"requirement_level": "MUST",
					"hint": "The source code shall be managed with Git and remain publicly available for this criterion to be successful. Please check <a href=\"https://git-scm.com/book/es/v2\" target=\"_blank\">Pro Git</a> docs about how to get started using Git tool. Guidelines provided by the most popular social coding platforms (<a href=\"https://docs.github.com/get-started\" target=\"_blank\">GitHub</a>, <a href=\"https://about.gitlab.com/get-started/\" target=\"_blank\">GitLab</a>) are also a good starting point",
					"evidence": [
						{
							"valid": true,
							"message": "Source code uses Git for version control",
							"plugin": {
								"name": "report2sqaaas-plugin-boolean",
								"version": "2.1.0"
							},
							"tool": {
								"name": "git",
								"lang": "scm",
								"version": "2.34.1",
								"docker": {
									"image": "bitnami/git:2.34.1",
									"reviewed": "2021-12-30"
								},
								"ci": {
									"name": "QC.Acc github.com/edanya-uma/LandSlideHySEA git",
									"status": "SUCCESS",
									"stdout_command": [
										"git rev-parse --is-inside-work-tree "
									],
									"stdout_text": "true",
									"url": "https://jenkins.eosc-synergy.eu/job/eosc-synergy-org/job/LandSlideHySEA.assess.sqaaas/job/main/3/execution/node/34/log?consoleFull"
								},
								"level": "REQUIRED",
								"build_repo": "https://github.com/eosc-synergy/LandSlideHySEA.assess.sqaaas"
							},
							"standard": {
								"title": "A set of Common Software Quality Assurance Baseline Criteria for Research Projects",
								"version": "v4.0",
								"url": "https://github.com/indigo-dc/sqa-baseline/releases/tag/v4.0"
							},
							"data_unstructured": {}
						}
					],
					"valid": true
				}
			},
			"coverage": {
				"percentage": 100,
				"total_subcriteria": 1,
				"success_subcriteria": 1
			}
		},
		"QC.Doc": {
			"valid": false,
			"subcriteria": {
				"QC.Doc06.1": {
					"description": "Is the software scope outlined in the code repository?",
					"requirement_level": "MUST",
					"hint": "A README file presents your software to the audience interested in your software project. Several online sites simplify the task of creating the README file, such as <a href=\"https://www.makeareadme.com/\" target=\"_blank\">Make a README</a> or <a href=\"https://readme.so/\" target=\"_blank\">readme.so</a> sites. Be sure to add it to the code repository's root path",
					"evidence": [
						{
							"valid": true,
							"message": "A README file is present in the code repository",
							"plugin": {
								"name": "report2sqaaas-plugin-find_doc_files",
								"version": "2.1.0"
							},
							"tool": {
								"name": "find_doc_files.py",
								"lang": "Contribution-enabling Files",
								"version": "latest",
								"docker": {
									"dockerfile": "QC.Doc/Dockerfile",
									"reviewed": "2022-01-26"
								},
								"ci": {
									"name": "QC.Doc github.com/edanya-uma/LandSlideHySEA find_doc_files.py",
									"status": "SUCCESS",
									"stdout_command": [
										"find_doc_files.py --file_type all"
									],
									"stdout_text": "{\"README\": [{\"file_name\": \"README.md\", \"size\": 1460}], \"CODE_OF_CONDUCT\": [], \"CONTRIBUTING\": []}",
									"url": "https://jenkins.eosc-synergy.eu/job/eosc-synergy-org/job/LandSlideHySEA.assess.sqaaas/job/main/3/execution/node/43/log?consoleFull"
								},
								"level": "REQUIRED",
								"build_repo": "https://github.com/eosc-synergy/LandSlideHySEA.assess.sqaaas"
							},
							"standard": {
								"title": "A set of Common Software Quality Assurance Baseline Criteria for Research Projects",
								"version": "v4.0",
								"url": "https://github.com/indigo-dc/sqa-baseline/releases/tag/v4.0"
							},
							"data_unstructured": {
								"README": [
									{
										"file_name": "README.md",
										"size": 1460
									}
								],
								"CODE_OF_CONDUCT": [],
								"CONTRIBUTING": []
							}
						}
					],
					"valid": true
				},
				"QC.Doc06.3": {
					"description": "Does the project establish a code of conduct for its participants?",
					"requirement_level": "MUST",
					"hint": "A CODE_OF_CONDUCT file sets the path for a constructive, respectful and positive atmosphere among all the contributors in your software project. Of course you can define your own, but in case you want to rely on external and widely-adopted code of conducts check out some of the most popular ones: <a href=\"https://contributor-covenant.org/\" target=\"_blank\">Contributor Covenant</a> or <a href=\"https://web.archive.org/web/20200330154000/http://citizencodeofconduct.org/\" target=\"_blank\">Citizen Code of Conduct</a>",
					"evidence": [
						{
							"valid": false,
							"message": "A CODE_OF_CONDUCT file is not present in the code repository",
							"plugin": {
								"name": "report2sqaaas-plugin-find_doc_files",
								"version": "2.1.0"
							},
							"tool": {
								"name": "find_doc_files.py",
								"lang": "Contribution-enabling Files",
								"version": "latest",
								"docker": {
									"dockerfile": "QC.Doc/Dockerfile",
									"reviewed": "2022-01-26"
								},
								"ci": {
									"name": "QC.Doc github.com/edanya-uma/LandSlideHySEA find_doc_files.py",
									"status": "SUCCESS",
									"stdout_command": [
										"find_doc_files.py --file_type all"
									],
									"stdout_text": "{\"README\": [{\"file_name\": \"README.md\", \"size\": 1460}], \"CODE_OF_CONDUCT\": [], \"CONTRIBUTING\": []}",
									"url": "https://jenkins.eosc-synergy.eu/job/eosc-synergy-org/job/LandSlideHySEA.assess.sqaaas/job/main/3/execution/node/43/log?consoleFull"
								},
								"level": "REQUIRED",
								"build_repo": "https://github.com/eosc-synergy/LandSlideHySEA.assess.sqaaas"
							},
							"standard": {
								"title": "A set of Common Software Quality Assurance Baseline Criteria for Research Projects",
								"version": "v4.0",
								"url": "https://github.com/indigo-dc/sqa-baseline/releases/tag/v4.0"
							},
							"data_unstructured": {
								"README": [
									{
										"file_name": "README.md",
										"size": 1460
									}
								],
								"CODE_OF_CONDUCT": [],
								"CONTRIBUTING": []
							}
						}
					],
					"valid": false,
					"required_for_next_level_badge": true
				},
				"QC.Doc06.2": {
					"description": "Is there a clear path or guidelines on how to contribute to the code?",
					"requirement_level": "MUST",
					"hint": "A CONTRIBUTING file shall be present in the root path of the code repository describing the expected workflow to follow when adding contributions. Please check <a href=\"https://mozillascience.github.io/working-open-workshop/contributing/\" target=\"_blank\">Mozilla's guidelines</a> and <a href=\"https://github.com/github/docs/blob/main/CONTRIBUTING.md\" target=\"_blank\">GitHub's CONTRIBUTING.md example</a> to get inspired on how to write a good CONTRIBUTING file",
					"evidence": [
						{
							"valid": false,
							"message": "A CONTRIBUTING file is not present in the code repository",
							"plugin": {
								"name": "report2sqaaas-plugin-find_doc_files",
								"version": "2.1.0"
							},
							"tool": {
								"name": "find_doc_files.py",
								"lang": "Contribution-enabling Files",
								"version": "latest",
								"docker": {
									"dockerfile": "QC.Doc/Dockerfile",
									"reviewed": "2022-01-26"
								},
								"ci": {
									"name": "QC.Doc github.com/edanya-uma/LandSlideHySEA find_doc_files.py",
									"status": "SUCCESS",
									"stdout_command": [
										"find_doc_files.py --file_type all"
									],
									"stdout_text": "{\"README\": [{\"file_name\": \"README.md\", \"size\": 1460}], \"CODE_OF_CONDUCT\": [], \"CONTRIBUTING\": []}",
									"url": "https://jenkins.eosc-synergy.eu/job/eosc-synergy-org/job/LandSlideHySEA.assess.sqaaas/job/main/3/execution/node/43/log?consoleFull"
								},
								"level": "REQUIRED",
								"build_repo": "https://github.com/eosc-synergy/LandSlideHySEA.assess.sqaaas"
							},
							"standard": {
								"title": "A set of Common Software Quality Assurance Baseline Criteria for Research Projects",
								"version": "v4.0",
								"url": "https://github.com/indigo-dc/sqa-baseline/releases/tag/v4.0"
							},
							"data_unstructured": {
								"README": [
									{
										"file_name": "README.md",
										"size": 1460
									}
								],
								"CODE_OF_CONDUCT": [],
								"CONTRIBUTING": []
							}
						}
					],
					"valid": false,
					"required_for_next_level_badge": true
				},
				"QC.Doc01.1": {
					"description": "Are docs managed in the same repository as code?",
					"requirement_level": "MAY",
					"hint": "This subcriterion will succeed if the documentation files exist on the same repository as the source code, e.g. under a <code>docs/</code> folder",
					"evidence": [
						{
							"valid": true,
							"message": "Documentation resides in the same repository as code",
							"plugin": {
								"name": "report2sqaaas-plugin-boolean",
								"version": "2.1.0"
							},
							"tool": {
								"name": "git",
								"lang": null,
								"version": null,
								"docker": null,
								"ci": {
									"name": "QC.Doc github.com/edanya-uma/LandSlideHySEA git",
									"status": "SUCCESS",
									"stdout_command": [
										"git rev-parse --is-inside-work-tree "
									],
									"stdout_text": "true",
									"url": "https://jenkins.eosc-synergy.eu/job/eosc-synergy-org/job/LandSlideHySEA.assess.sqaaas/job/main/3/execution/node/52/log?consoleFull"
								},
								"level": "REQUIRED",
								"build_repo": "https://github.com/eosc-synergy/LandSlideHySEA.assess.sqaaas"
							},
							"standard": {
								"title": "A set of Common Software Quality Assurance Baseline Criteria for Research Projects",
								"version": "v4.0",
								"url": "https://github.com/indigo-dc/sqa-baseline/releases/tag/v4.0"
							},
							"data_unstructured": {}
						}
					],
					"valid": true
				},
				"QC.Doc02.X": {
					"description": "Are docs following a style for the Markdown markup language?",
					"requirement_level": "MAY",
					"hint": "When using a docs-as-code approach, the style of the markup language is being checked. SQAaaS relies on <a href=\"https://github.com/markdownlint/markdownlint/\" target=\"_blank\">markdownlint</a> for Markdown files and <a href=\"https://github.com/twolfson/restructuredtext-lint/\" target=\"_blank\">restructuredtext-lint</a> for reStructuredText",
					"evidence": [
						{
							"valid": false,
							"message": "Docs are not fully compliant with markdownlint standard",
							"plugin": {
								"name": "report2sqaaas-plugin-markdownlint",
								"version": "2.1.0"
							},
							"tool": {
								"name": "markdownlint",
								"lang": "Markdown",
								"version": "0.11.0",
								"docker": {
									"dockerfile": "QC.Doc/markdownlint/Dockerfile",
									"reviewed": "1970-01-01"
								},
								"ci": {
									"name": "QC.Doc github.com/edanya-uma/LandSlideHySEA markdownlint",
									"status": "FAILED",
									"stdout_command": [
										"mdl --json  ."
									],
									"stdout_text": "[{\"filename\":\"./README.md\",\"line\":3,\"rule\":\"MD012\",\"aliases\":[\"no-multiple-blanks\"],\"description\":\"Multiple consecutive blank lines\"},{\"filename\":\"./README.md\",\"line\":6,\"rule\":\"MD012\",\"aliases\":[\"no-multiple-blanks\"],\"description\":\"Multiple consecutive blank lines\"},{\"filename\":\"./README.md\",\"line\":11,\"rule\":\"MD012\",\"aliases\":[\"no-multiple-blanks\"],\"description\":\"Multiple consecutive blank lines\"},{\"filename\":\"./README.md\",\"line\":24,\"rule\":\"MD012\",\"aliases\":[\"no-multiple-blanks\"],\"description\":\"Multiple consecutive blank lines\"},{\"filename\":\"./README.md\",\"line\":31,\"rule\":\"MD012\",\"aliases\":[\"no-multiple-blanks\"],\"description\":\"Multiple consecutive blank lines\"},{\"filename\":\"./README.md\",\"line\":38,\"rule\":\"MD012\",\"aliases\":[\"no-multiple-blanks\"],\"description\":\"Multiple consecutive blank lines\"},{\"filename\":\"./README.md\",\"line\":45,\"rule\":\"MD012\",\"aliases\":[\"no-multiple-blanks\"],\"description\":\"Multiple consecutive blank lines\"},{\"filename\":\"./README.md\",\"line\":50,\"rule\":\"MD012\",\"aliases\":[\"no-multiple-blanks\"],\"description\":\"Multiple consecutive blank lines\"},{\"filename\":\"./README.md\",\"line\":7,\"rule\":\"MD013\",\"aliases\":[\"line-length\"],\"description\":\"Line length\"},{\"filename\":\"./README.md\",\"line\":9,\"rule\":\"MD013\",\"aliases\":[\"line-length\"],\"description\":\"Line length\"},{\"filename\":\"./README.md\",\"line\":41,\"rule\":\"MD013\",\"aliases\":[\"line-length\"],\"description\":\"Line length\"},{\"filename\":\"./README.md\",\"line\":43,\"rule\":\"MD013\",\"aliases\":[\"line-length\"],\"description\":\"Line length\"},{\"filename\":\"./README.md\",\"line\":48,\"rule\":\"MD013\",\"aliases\":[\"line-length\"],\"description\":\"Line length\"},{\"filename\":\"./README.md\",\"line\":41,\"rule\":\"MD033\",\"aliases\":[\"no-inline-html\"],\"description\":\"Inline HTML\"},{\"filename\":\"./README.md\",\"line\":43,\"rule\":\"MD033\",\"aliases\":[\"no-inline-html\"],\"description\":\"Inline HTML\"}]",
									"url": "https://jenkins.eosc-synergy.eu/job/eosc-synergy-org/job/LandSlideHySEA.assess.sqaaas/job/main/3/execution/node/61/log?consoleFull"
								},
								"level": "RECOMMENDED",
								"build_repo": "https://github.com/eosc-synergy/LandSlideHySEA.assess.sqaaas"
							},
							"standard": {
								"title": "A set of Common Software Quality Assurance Baseline Criteria for Research Projects",
								"version": "v4.0",
								"url": "https://github.com/indigo-dc/sqa-baseline/releases/tag/v4.0"
							},
							"data_unstructured": {
								"./README.md": {
									"MD012": {
										"description": "Multiple consecutive blank lines",
										"line": [
											3,
											6,
											11,
											24,
											31,
											38,
											45,
											50
										]
									},
									"MD013": {
										"description": "Line length",
										"line": [
											7,
											9,
											41,
											43,
											48
										]
									},
									"MD033": {
										"description": "Inline HTML",
										"line": [
											41,
											43
										]
									}
								}
							}
						}
					],
					"valid": false,
					"required_for_next_level_badge": false
				}
			},
			"coverage": {
				"percentage": 40,
				"total_subcriteria": 5,
				"success_subcriteria": 2
			}
		},
		"QC.Lic": {
			"valid": false,
			"subcriteria": {},
			"coverage": {
				"percentage": 0,
				"total_subcriteria": 0,
				"success_subcriteria": 0
			}
		},
		"QC.Sty": {
			"valid": false,
			"subcriteria": {
				"QC.Sty01": {
					"description": "Is the software product following a style standard for C++ files?",
					"requirement_level": "MUST",
					"hint": "Please check & solve the security weaknesses found by the linter tool",
					"evidence": [
						{
							"valid": false,
							"message": "C++ files are not fully compliant with oclint standard",
							"plugin": {
								"name": "report2sqaaas-plugin-jenkins_exit_status",
								"version": "2.1.0"
							},
							"tool": {
								"name": "oclint",
								"lang": "C++",
								"version": "20.11",
								"docker": {
									"image": "drakorgaur/oclint:3077181575",
									"reviewed": "2024-03-18"
								},
								"ci": {
									"name": "QC.Sty github.com/edanya-uma/LandSlideHySEA oclint",
									"status": "FAILED",
									"stdout_command": [
										"oclint  -- -c"
									],
									"stdout_text": "LLVM ERROR: CommonOptionsParser: failed to parse command-line arguments. [CommonOptionsParser]: oclint: Not enough positional command line arguments specified!\nMust specify at least 1 positional argument: See: oclint --help\n\nAborted (core dumped)",
									"url": "https://jenkins.eosc-synergy.eu/job/eosc-synergy-org/job/LandSlideHySEA.assess.sqaaas/job/main/3/execution/node/79/log?consoleFull"
								},
								"level": "REQUIRED",
								"build_repo": "https://github.com/eosc-synergy/LandSlideHySEA.assess.sqaaas"
							},
							"standard": {
								"title": "A set of Common Software Quality Assurance Baseline Criteria for Research Projects",
								"version": "v4.0",
								"url": "https://github.com/indigo-dc/sqa-baseline/releases/tag/v4.0"
							},
							"data_unstructured": {}
						}
					],
					"valid": false,
					"required_for_next_level_badge": false
				}
			},
			"coverage": {
				"percentage": 0,
				"total_subcriteria": 1,
				"success_subcriteria": 0
			}
		},
		"QC.Ver": {
			"valid": true,
			"subcriteria": {
				"QC.Ver01.0": {
					"description": "Are tags being used for releasing software",
					"requirement_level": "MUST",
					"hint": "Git tags are a convenient way to release software. This subcriterion checks if any git tag is present in the code history. More info on it-scm.com/book/en/v2/Git-Basics-Tagging\" target=\"_blank\">git tagging</a>",
					"evidence": [
						{
							"valid": true,
							"message": "The code repository uses tags for releasing new software versions",
							"plugin": {
								"name": "report2sqaaas-plugin-is_semver",
								"version": "2.1.0"
							},
							"tool": {
								"name": "get_git_tags.py",
								"lang": "Semantic Versioning",
								"version": "latest",
								"docker": {
									"dockerfile": "QC.Ver/Dockerfile",
									"reviewed": "2022-05-10"
								},
								"ci": {
									"name": "QC.Ver github.com/edanya-uma/LandSlideHySEA get_git_tags.py",
									"status": "SUCCESS",
									"stdout_command": [
										"get_git_tags.py"
									],
									"stdout_text": "['v1.0.0']",
									"url": "https://jenkins.eosc-synergy.eu/job/eosc-synergy-org/job/LandSlideHySEA.assess.sqaaas/job/main/3/execution/node/88/log?consoleFull"
								},
								"level": "REQUIRED",
								"build_repo": "https://github.com/eosc-synergy/LandSlideHySEA.assess.sqaaas"
							},
							"standard": {
								"title": "A set of Common Software Quality Assurance Baseline Criteria for Research Projects",
								"version": "v4.0",
								"url": "https://github.com/indigo-dc/sqa-baseline/releases/tag/v4.0"
							},
							"data_unstructured": [
								"v1.0.0"
							]
						}
					],
					"valid": true
				},
				"QC.Ver01": {
					"description": "Is the latest release compliant with Semantic Versioning (SemVer) specification?",
					"requirement_level": "SHOULD",
					"hint": "Latest tag must be compliant with <a href=\"https://semver.org\" target=\"_blank\">SemVer specification</a>",
					"evidence": [
						{
							"valid": false,
							"message": "Latest release tag v1.0.0 found, but is not SemVer compliant",
							"plugin": {
								"name": "report2sqaaas-plugin-is_semver",
								"version": "2.1.0"
							},
							"tool": {
								"name": "get_git_tags.py",
								"lang": "Semantic Versioning",
								"version": "latest",
								"docker": {
									"dockerfile": "QC.Ver/Dockerfile",
									"reviewed": "2022-05-10"
								},
								"ci": {
									"name": "QC.Ver github.com/edanya-uma/LandSlideHySEA get_git_tags.py",
									"status": "SUCCESS",
									"stdout_command": [
										"get_git_tags.py"
									],
									"stdout_text": "['v1.0.0']",
									"url": "https://jenkins.eosc-synergy.eu/job/eosc-synergy-org/job/LandSlideHySEA.assess.sqaaas/job/main/3/execution/node/88/log?consoleFull"
								},
								"level": "REQUIRED",
								"build_repo": "https://github.com/eosc-synergy/LandSlideHySEA.assess.sqaaas"
							},
							"standard": {
								"title": "A set of Common Software Quality Assurance Baseline Criteria for Research Projects",
								"version": "v4.0",
								"url": "https://github.com/indigo-dc/sqa-baseline/releases/tag/v4.0"
							},
							"data_unstructured": [
								"v1.0.0"
							]
						}
					],
					"valid": false,
					"required_for_next_level_badge": false
				},
				"QC.Ver02": {
					"description": "Are all release tags with Semantic Versioning (SemVer) specification?",
					"requirement_level": "SHOULD",
					"hint": "Existent release tags shall be <a href=\"https://semver.org\" target=\"_blank\">SemVer</a> compliant for this subcriterion to be successful",
					"evidence": [
						{
							"valid": false,
							"message": "Not all release tags are SemVer compliant",
							"plugin": {
								"name": "report2sqaaas-plugin-is_semver",
								"version": "2.1.0"
							},
							"tool": {
								"name": "get_git_tags.py",
								"lang": "Semantic Versioning",
								"version": "latest",
								"docker": {
									"dockerfile": "QC.Ver/Dockerfile",
									"reviewed": "2022-05-10"
								},
								"ci": {
									"name": "QC.Ver github.com/edanya-uma/LandSlideHySEA get_git_tags.py",
									"status": "SUCCESS",
									"stdout_command": [
										"get_git_tags.py"
									],
									"stdout_text": "['v1.0.0']",
									"url": "https://jenkins.eosc-synergy.eu/job/eosc-synergy-org/job/LandSlideHySEA.assess.sqaaas/job/main/3/execution/node/88/log?consoleFull"
								},
								"level": "REQUIRED",
								"build_repo": "https://github.com/eosc-synergy/LandSlideHySEA.assess.sqaaas"
							},
							"standard": {
								"title": "A set of Common Software Quality Assurance Baseline Criteria for Research Projects",
								"version": "v4.0",
								"url": "https://github.com/indigo-dc/sqa-baseline/releases/tag/v4.0"
							},
							"data_unstructured": [
								"v1.0.0"
							]
						}
					],
					"valid": false,
					"required_for_next_level_badge": false
				}
			},
			"coverage": {
				"percentage": 33,
				"total_subcriteria": 3,
				"success_subcriteria": 1
			}
		},
		"QC.Met": {
			"valid": false,
			"subcriteria": {
				"QC.Met01": {
					"description": "Is the software citable?",
					"valid": false,
					"hint": "The two formats for software citation supported by SQAaaS are: 1) <a href=\"https://codemeta.github.io/\" target=\"_blank\">CodeMeta</a> and 2) <a href=\"https://citation-file-format.github.io/\" target=\"_blank\">Citation File Format (CFF)</a>. While CodeMeta provides you with a more comprehensive description, CFF is a more lightweight, good-enough approach to software (with built-in support by GitHub) citation. Both provide tools (<a href=\"https://codemeta.github.io/codemeta-generator/\" target=\"_blank\">CodeMeta generator</a>, <a href=\"https://citation-file-format.github.io/cff-initializer-javascript/#/\" target=\"_blank\">CFFINIT</a>)to easily generate a working citation file. Once having the file, be sure to add it to the root path of your code repo.",
					"evidence": [
						{
							"valid": false,
							"message": "No matching files found for language <CodeMeta> in repository searching by extensions or filenames\nNo matching files found for language <Citation File Format> in repository searching by extensions or filenames"
						}
					],
					"required_for_next_level_badge": false
				}
			},
			"coverage": {
				"percentage": 0,
				"total_subcriteria": 1,
				"success_subcriteria": 0
			}
		},
		"QC.Sec": {
			"valid": false,
			"subcriteria": {
				"QC.Sec02": {
					"description": "Is the source code passing Static Analysis Security Testing (SAST)?",
					"valid": false,
					"hint": "Please check & solve the security weaknesses found by the SAST tool",
					"evidence": [
						{
							"valid": false,
							"message": "No matching files found for language <Python> in repository searching by extensions or filenames\nNo matching files found for language <Go> in repository searching by extensions or filenames"
						}
					],
					"required_for_next_level_badge": false
				}
			},
			"coverage": {
				"percentage": 0,
				"total_subcriteria": 1,
				"success_subcriteria": 0
			}
		},
		"QC.Uni": {
			"valid": false,
			"subcriteria": {
				"QC.Uni01": {
					"description": "Are the tests passing through an automated means?",
					"valid": false,
					"hint": "Please check & solve the failing test cases found by the {tool_name} tool",
					"evidence": [
						{
							"valid": false,
							"message": "No matching files found for language <Python> in repository searching by extensions or filenames"
						}
					],
					"required_for_next_level_badge": false
				}
			},
			"coverage": {
				"percentage": 0,
				"total_subcriteria": 1,
				"success_subcriteria": 0
			}
		}
	},
	"badge": {
		"software": {
			"criteria": {
				"bronze": {
					"to_fulfill": [
						"QC.Lic",
						"QC.Acc",
						"QC.Doc"
					],
					"missing": [
						"QC.Lic",
						"QC.Doc"
					],
					"fulfilled": [
						"QC.Acc"
					]
				},
				"silver": {
					"to_fulfill": [
						"QC.Ver",
						"QC.Acc",
						"QC.Lic",
						"QC.Doc",
						"QC.Met"
					],
					"missing": [
						"QC.Lic",
						"QC.Doc",
						"QC.Met"
					],
					"fulfilled": [
						"QC.Ver",
						"QC.Acc"
					]
				},
				"gold": {
					"to_fulfill": [
						"QC.Ver",
						"QC.Acc",
						"QC.Sty",
						"QC.Uni",
						"QC.Lic",
						"QC.Doc",
						"QC.Sec",
						"QC.Met"
					],
					"missing": [
						"QC.Sty",
						"QC.Uni",
						"QC.Lic",
						"QC.Doc",
						"QC.Sec",
						"QC.Met"
					],
					"fulfilled": [
						"QC.Ver",
						"QC.Acc"
					]
				}
			},
			"data": {}
		}
	}
}